{
	"info": {
		"_postman_id": "0f1d5f31-2ea0-4a87-aad3-07ed1e1aa8a0",
		"name": "AutomizyDevTest",
		"schema": "https://schema.getpostman.com/json/collection/v2.1.0/collection.json"
	},
	"item": [
		{
			"name": "student",
			"item": [
				{
					"name": "List",
					"request": {
						"method": "GET",
						"header": [],
						"url": {
							"raw": "localhost:3000/api/student",
							"host": [
								"localhost"
							],
							"port": "3000",
							"path": [
								"api",
								"student"
							]
						}
					},
					"response": [
						{
							"name": "List",
							"originalRequest": {
								"method": "GET",
								"header": [],
								"url": {
									"raw": "localhost:3000/api/student",
									"host": [
										"localhost"
									],
									"port": "3000",
									"path": [
										"api",
										"student"
									]
								}
							},
							"status": "OK",
							"code": 200,
							"_postman_previewlanguage": "json",
							"header": [
								{
									"key": "X-Powered-By",
									"value": "Express"
								},
								{
									"key": "Content-Type",
									"value": "application/json; charset=utf-8"
								},
								{
									"key": "Content-Length",
									"value": "983"
								},
								{
									"key": "ETag",
									"value": "W/\"3d7-ibu/TzfjDCkj6ll9MdWZ+wnNye0\""
								},
								{
									"key": "Date",
									"value": "Wed, 27 May 2020 20:10:41 GMT"
								},
								{
									"key": "Connection",
									"value": "keep-alive"
								}
							],
							"cookie": [],
							"body": "{\n    \"students\": [\n        {\n            \"id\": \"1\",\n            \"first_name\": \"Ford\",\n            \"last_name\": \"Feacsrxflines\",\n            \"email\": \"foscsxrd@mail.com\",\n            \"createdAt\": \"Wed May 27 2020 21:12:16 GMT+0200 (Central European Summer Time)\",\n            \"updatedAt\": \"Wed May 27 2020 21:12:16 GMT+0200 (Central European Summer Time)\"\n        },\n        {\n            \"id\": \"9\",\n            \"first_name\": \"Ford\",\n            \"last_name\": \"Feacssrxflines\",\n            \"email\": \"fosscsxrd@mail.com\",\n            \"createdAt\": \"Wed May 27 2020 22:03:21 GMT+0200 (Central European Summer Time)\",\n            \"updatedAt\": \"Wed May 27 2020 22:03:21 GMT+0200 (Central European Summer Time)\"\n        },\n        {\n            \"id\": \"12\",\n            \"first_name\": \"Ford\",\n            \"last_name\": \"Feacssrxsflines\",\n            \"email\": \"\",\n            \"createdAt\": \"Wed May 27 2020 22:03:52 GMT+0200 (Central European Summer Time)\",\n            \"updatedAt\": \"Wed May 27 2020 22:03:52 GMT+0200 (Central European Summer Time)\"\n        },\n        {\n            \"id\": \"17\",\n            \"first_name\": \"Ford\",\n            \"last_name\": \"Fairlane\",\n            \"email\": \"ford.fairlane@mail.com\",\n            \"createdAt\": \"Wed May 27 2020 22:07:25 GMT+0200 (Central European Summer Time)\",\n            \"updatedAt\": \"Wed May 27 2020 22:07:25 GMT+0200 (Central European Summer Time)\"\n        }\n    ]\n}"
						}
					]
				},
				{
					"name": "Create",
					"request": {
						"method": "POST",
						"header": [],
						"body": {
							"mode": "raw",
							"raw": "{\n\t\"first_name\": \"Ford\",\n    \"last_name\": \"Fairlane\", \n    \"email\": \"ford.fairlane@mail.com\"\n}",
							"options": {
								"raw": {
									"language": "json"
								}
							}
						},
						"url": {
							"raw": "localhost:3000/api/student",
							"host": [
								"localhost"
							],
							"port": "3000",
							"path": [
								"api",
								"student"
							]
						}
					},
					"response": []
				},
				{
					"name": "Read",
					"request": {
						"method": "GET",
						"header": [],
						"url": {
							"raw": "localhost:3000/api/student/1",
							"host": [
								"localhost"
							],
							"port": "3000",
							"path": [
								"api",
								"student",
								"1"
							]
						}
					},
					"response": []
				},
				{
					"name": "Update",
					"request": {
						"method": "PUT",
						"header": [],
						"body": {
							"mode": "raw",
							"raw": "{\n\t\"first_name\": \"Zuzu\",\n    \"last_name\": \"Petaz\", \n    \"email\": \"zuzu.petaz@mail.com\"\n}",
							"options": {
								"raw": {
									"language": "json"
								}
							}
						},
						"url": {
							"raw": "localhost:3000/api/student/1",
							"host": [
								"localhost"
							],
							"port": "3000",
							"path": [
								"api",
								"student",
								"1"
							]
						}
					},
					"response": []
				},
				{
					"name": "Delete",
					"request": {
						"method": "DELETE",
						"header": [],
						"url": {
							"raw": "localhost:3000/api/student/1",
							"host": [
								"localhost"
							],
							"port": "3000",
							"path": [
								"api",
								"student",
								"1"
							]
						}
					},
					"response": []
				}
			]
		},
		{
			"name": "project",
			"item": [
				{
					"name": "List",
					"request": {
						"method": "GET",
						"header": [],
						"url": {
							"raw": "localhost:3000/api/project",
							"host": [
								"localhost"
							],
							"port": "3000",
							"path": [
								"api",
								"project"
							]
						}
					},
					"response": [
						{
							"name": "List",
							"originalRequest": {
								"method": "GET",
								"header": [],
								"url": {
									"raw": "localhost:3000/api/project",
									"host": [
										"localhost"
									],
									"port": "3000",
									"path": [
										"api",
										"project"
									]
								}
							},
							"status": "OK",
							"code": 200,
							"_postman_previewlanguage": "json",
							"header": [
								{
									"key": "X-Powered-By",
									"value": "Express"
								},
								{
									"key": "Access-Control-Allow-Origin",
									"value": "http://localhost:8080"
								},
								{
									"key": "Vary",
									"value": "Origin"
								},
								{
									"key": "Content-Type",
									"value": "application/json; charset=utf-8"
								},
								{
									"key": "Content-Length",
									"value": "488"
								},
								{
									"key": "ETag",
									"value": "W/\"1e8-IrVJj1odMQvmHVBt3bicK/jReo0\""
								},
								{
									"key": "Date",
									"value": "Fri, 07 May 2021 06:56:40 GMT"
								},
								{
									"key": "Connection",
									"value": "keep-alive"
								},
								{
									"key": "Keep-Alive",
									"value": "timeout=5"
								}
							],
							"cookie": [],
							"body": "{\n    \"projects\": [\n        {\n            \"id\": \"1\",\n            \"name\": \"Sing Booty Time\",\n            \"desc\": \"Booty time, Booty time across the USA\",\n            \"createdAt\": \"Fri May 07 2021 17:55:54 GMT+0200 (Central European Summer Time)\",\n            \"updatedAt\": \"Fri May 07 2021 17:55:54 GMT+0200 (Central European Summer Time)\"\n        },\n        {\n            \"id\": \"2\",\n            \"name\": \"Smoke Cigarette\",\n            \"desc\": \"Only with Zippo\",\n            \"createdAt\": \"Fri May 07 2021 17:56:37 GMT+0200 (Central European Summer Time)\",\n            \"updatedAt\": \"Fri May 07 2021 17:56:37 GMT+0200 (Central European Summer Time)\"\n        }\n    ]\n}"
						}
					]
				},
				{
					"name": "Create",
					"request": {
						"method": "POST",
						"header": [],
						"body": {
							"mode": "raw",
							"raw": "{\n\t\"name\": \"Sing Booty Time\",\n    \"desc\": \"Booty time, Booty time across the USA\" \n}",
							"options": {
								"raw": {
									"language": "json"
								}
							}
						},
						"url": {
							"raw": "localhost:3000/api/project",
							"host": [
								"localhost"
							],
							"port": "3000",
							"path": [
								"api",
								"project"
							]
						}
					},
					"response": []
				},
				{
					"name": "Read",
					"request": {
						"method": "GET",
						"header": [],
						"url": {
							"raw": "localhost:3000/api/project/1",
							"host": [
								"localhost"
							],
							"port": "3000",
							"path": [
								"api",
								"project",
								"1"
							]
						}
					},
					"response": []
				},
				{
					"name": "Update",
					"request": {
						"method": "PUT",
						"header": [],
						"body": {
							"mode": "raw",
							"raw": "{\n    \"name\": \"Booty Time\",\n\t\"desc\": \"Disco Express\"\n}",
							"options": {
								"raw": {
									"language": "json"
								}
							}
						},
						"url": {
							"raw": "localhost:3000/api/project/1",
							"host": [
								"localhost"
							],
							"port": "3000",
							"path": [
								"api",
								"project",
								"1"
							]
						}
					},
					"response": []
				},
				{
					"name": "Delete",
					"request": {
						"method": "DELETE",
						"header": [],
						"url": {
							"raw": "localhost:3000/api/project/1",
							"host": [
								"localhost"
							],
							"port": "3000",
							"path": [
								"api",
								"project",
								"1"
							]
						}
					},
					"response": []
				}
			]
		},
		{
			"name": "managements",
			"item": [
				{
					"name": "List",
					"request": {
						"method": "GET",
						"header": [],
						"url": {
							"raw": "localhost:3000/api/managements/project",
							"host": [
								"localhost"
							],
							"port": "3000",
							"path": [
								"api",
								"managements",
								"project"
							]
						}
					},
					"response": [
						{
							"name": "List",
							"originalRequest": {
								"method": "GET",
								"header": [],
								"url": {
									"raw": "localhost:3000/api/managements/project",
									"host": [
										"localhost"
									],
									"port": "3000",
									"path": [
										"api",
										"managements",
										"project"
									]
								}
							},
							"status": "OK",
							"code": 200,
							"_postman_previewlanguage": "json",
							"header": [
								{
									"key": "X-Powered-By",
									"value": "Express"
								},
								{
									"key": "Access-Control-Allow-Origin",
									"value": "http://localhost:8080"
								},
								{
									"key": "Vary",
									"value": "Origin"
								},
								{
									"key": "Content-Type",
									"value": "application/json; charset=utf-8"
								},
								{
									"key": "Content-Length",
									"value": "763"
								},
								{
									"key": "ETag",
									"value": "W/\"2fb-vxz79sPQ9/wyqGtAOn3BgEh++Tk\""
								},
								{
									"key": "Date",
									"value": "Fri, 07 May 2021 06:58:18 GMT"
								},
								{
									"key": "Connection",
									"value": "keep-alive"
								},
								{
									"key": "Keep-Alive",
									"value": "timeout=5"
								}
							],
							"cookie": [],
							"body": "{\n    \"managements\": [\n        {\n            \"students\": [],\n            \"id\": \"1\",\n            \"name\": \"Sing Booty Time\",\n            \"desc\": \"Booty time, Booty time across the USA\",\n            \"createdAt\": \"Fri May 07 2021 17:55:54 GMT+0200 (Central European Summer Time)\",\n            \"updatedAt\": \"Fri May 07 2021 17:55:54 GMT+0200 (Central European Summer Time)\"\n        },\n        {\n            \"students\": [\n                {\n                    \"id\": \"1\",\n                    \"first_name\": \"Ford\",\n                    \"last_name\": \"Fairlane\",\n                    \"email\": \"ford.fairlane@mail.com\",\n                    \"createdAt\": \"Fri May 07 2021 17:55:39 GMT+0200 (Central European Summer Time)\",\n                    \"updatedAt\": \"Fri May 07 2021 17:55:39 GMT+0200 (Central European Summer Time)\"\n                }\n            ],\n            \"id\": \"2\",\n            \"name\": \"Smoke Cigarette\",\n            \"desc\": \"Only with Zippo\",\n            \"createdAt\": \"Fri May 07 2021 17:56:37 GMT+0200 (Central European Summer Time)\",\n            \"updatedAt\": \"Fri May 07 2021 17:56:37 GMT+0200 (Central European Summer Time)\"\n        }\n    ]\n}"
						}
					]
				},
				{
					"name": "Post",
					"request": {
						"method": "POST",
						"header": [],
						"body": {
							"mode": "raw",
							"raw": "{\n    \"id\": \"1\"\n}",
							"options": {
								"raw": {
									"language": "json"
								}
							}
						},
						"url": {
							"raw": "localhost:3000/api/managements/project/1/student",
							"host": [
								"localhost"
							],
							"port": "3000",
							"path": [
								"api",
								"managements",
								"project",
								"1",
								"student"
							]
						}
					},
					"response": []
				},
				{
					"name": "Delete",
					"request": {
						"method": "DELETE",
						"header": [],
						"body": {
							"mode": "raw",
							"raw": "",
							"options": {
								"raw": {
									"language": "json"
								}
							}
						},
						"url": {
							"raw": "localhost:3000/api/managements/project/1/student/1",
							"host": [
								"localhost"
							],
							"port": "3000",
							"path": [
								"api",
								"managements",
								"project",
								"1",
								"student",
								"1"
							]
						}
					},
					"response": []
				},
				{
					"name": "Read",
					"request": {
						"method": "GET",
						"header": [],
						"url": {
							"raw": "localhost:3000/api/managements/project/1",
							"host": [
								"localhost"
							],
							"port": "3000",
							"path": [
								"api",
								"managements",
								"project",
								"1"
							]
						}
					},
					"response": []
				}
			]
		}
	]
}